{
  "mod_version": "v1",
  "files": [
    {
      "name": "igb-4.4.180plus-broadwell.tgz",
      "url": "https://gitlab.com/tinypill/rp-ext/-/raw/main/igb/releases/igb-4.4.180plus-broadwell.tgz",
      "sha256": "23d8428a53507fa2defb4c5a64df82a1a85e3a8ed22a30fd543fd7756a53a57f",
      "packed": true
    },
    {
      "name": "check-igb.sh",
      "url": "https://gitlab.com/tinypill/rp-ext/-/raw/main/igb/src/check-igb.sh",
      "sha256": "1c287077390c24764eeb0f1e768232cfd4e26e0cb5b01154464d7181d1c3ebf4",
      "packed": false
    }
  ],
  "kmods": {
    "igb.ko": ""
  },
  "scripts": {
    "on_boot": "check-igb.sh"
  }
}
