{
  "mod_version": "v1",

  "files": [
    {
      "name": "bnx2-3.10.105.tgz",
      "url": "https://gitlab.com/tinypill/rp-ext/-/raw/main/bnx2/releases/bnx2-3.10.105.tgz",
      "sha256": "3003482abfe97b792cb580f7e43087a698e253ab6b5c979dc11c80c27735af6c",
      "packed": true
    },
    {
      "name": "check-bnx2.sh",
      "url": "https://gitlab.com/tinypill/rp-ext/-/raw/main/bnx2/src/check-bnx2.sh",
      "sha256": "10104a3f26a9f5a88589de8051c4a68872d8cf0597a6fff9feafc9c211483f88",
      "packed": false
    }
  ],

  "kmods": {
    "bnx2.ko": ""
  },

    "scripts": {
    "on_boot": "check-bnx2.sh"
  }

}
