{
  "mod_version": "v1",

  "files": [
    {
      "name": "3w-sas-4.4.180plus.tgz",
      "url": "https://gitlab.com/tinypill/rp-ext/-/raw/main/3w-sas/releases/3w-sas-4.4.180plus.tgz",
      "sha256": "9085a4a9018e9c041e04537b222a852d1e2a6443ff91c10279abc8661737847b",
      "packed": true
    },
    {
      "name": "check-3w-sas.sh",
      "url": "https://gitlab.com/tinypill/rp-ext/-/raw/main/3w-sas/src/check-3w-sas.sh",
      "sha256": "918a66c241bf48dcc71af587f038206ac4d8b87ab58b5954c9c9edddd6cd4b5f",
      "packed": false
    }
  ],

  "kmods": {
    "3w-sas.ko": ""
  },

    "scripts": {
    "on_boot": "check-3w-sas.sh"
  }

}
