{
  "mod_version": "v1",

  "files": [
    {
      "name": "cxgb4vf-3.10.108.tgz",
      "url": "https://gitlab.com/tinypill/rp-ext/-/raw/main/cxgb4vf/releases/cxgb4vf-3.10.108.tgz",
      "sha256": "fb17baf2b72ec9194d7c089cd97390a4c1a36f3a059422e44f5ecf6fa118bdf0",
      "packed": true
    },
    {
      "name": "check-cxgb4vf.sh",
      "url": "https://gitlab.com/tinypill/rp-ext/-/raw/main/cxgb4vf/src/check-cxgb4vf.sh",
      "sha256": "cfd46da5e2f9c6e628ae3cc873c1ca5c9f10c48764008b58922fce6f5104a359",
      "packed": false
    }
  ],

  "kmods": {
    "cxgb4vf.ko": ""
  },

    "scripts": {
    "on_boot": "check-cxgb4vf.sh"
  }

}
