{
  "mod_version": "v1",

  "files": [
    {
      "name": "cxgb4vf-4.4.180plus.tgz",
      "url": "https://gitlab.com/tinypill/rp-ext/-/raw/main/cxgb4vf/releases/cxgb4vf-4.4.180plus.tgz",
      "sha256": "2681f9e7c75afe1841e0d5d3a9f9464d03f0ebc7cd4d81c01ebbafc4cccda89f",
      "packed": true
    },
    {
      "name": "check-cxgb4vf.sh",
      "url": "https://gitlab.com/tinypill/rp-ext/-/raw/main/cxgb4vf/src/check-cxgb4vf.sh",
      "sha256": "cfd46da5e2f9c6e628ae3cc873c1ca5c9f10c48764008b58922fce6f5104a359",
      "packed": false
    }
  ],

  "kmods": {
    "cxgb4vf.ko": ""
  },

    "scripts": {
    "on_boot": "check-cxgb4vf.sh"
  }

}
