{
  "mod_version": "v1",
  "files": [
    {
      "name": "hpsa-4.4.180plus-broadwell.tgz",
      "url": "https://gitlab.com/tinypill/rp-ext/-/raw/main/hpsa/releases/hpsa-4.4.180plus-broadwell.tgz",
      "sha256": "c086b76c140791e50e78c90c2c5a2972d8c6fdddfa8eba060447551947fcfc4a",
      "packed": true
    },
    {
      "name": "check-hpsa.sh",
      "url": "https://gitlab.com/tinypill/rp-ext/-/raw/main/hpsa/src/check-hpsa.sh",
      "sha256": "08d8a429134b1cfcd3a498ffe8f686804de8f621f8b86336fed60569c1427952",
      "packed": false
    }
  ],
  "kmods": {
    "scsi_transport_sas.ko": "",
    "hpsa.ko": ""
  },
  "scripts": {
    "on_boot": "check-hpsa.sh"
  }
}
