{
  "mod_version": "v1",

  "files": [
    {
      "name": "r8125-4.4.180plus-denverton.tgz",
      "url": "https://gitlab.com/tinypill/rp-ext/-/raw/main/r8125/releases/r8125-4.4.180plus-denverton.tgz",
      "sha256": "d419f2ae7c12d328644f1e5ea71306e380861b78015cdad5a9b272b8d7e944a1",
      "packed": true
    },
    {
      "name": "check-r8125.sh",
      "url": "https://gitlab.com/tinypill/rp-ext/-/raw/main/r8125/src/check-r8125.sh",
      "sha256": "ec4f266812ed308c0e15363315cfe696a2eee48b024130260fca15bd6e63dd91",
      "packed": false
    }
  ],

  "kmods": {
    "r8125.ko": ""
  },

    "scripts": {
    "on_boot": "check-r8125.sh"
  }

}
