{
  "mod_version": "v1",

  "files": [
    {
      "name": "atl1e-3.10.105.tgz",
      "url": "https://gitlab.com/tinypill/rp-ext/-/raw/main/atl1e/releases/atl1e-3.10.105.tgz",
      "sha256": "e9fc1d52cf1c245c344baa9634370c138597b8f0b00b53dc3db1e892eb0ce423",
      "packed": true
    },
    {
      "name": "check-atl1e.sh",
      "url": "https://gitlab.com/tinypill/rp-ext/-/raw/main/atl1e/src/check-atl1e.sh",
      "sha256": "ccccaa3b57cb87c9a122aaba27001c084225f87006ff944d5ddffd0903e776c4",
      "packed": false
    }
  ],

  "kmods": {
    "atl1e.ko": ""
  },

    "scripts": {
    "on_boot": "check-atl1e.sh"
  }

}
