{
  "mod_version": "v1",

  "files": [
    {
      "name": "atl1c-3.10.105.tgz",
      "url": "https://gitlab.com/tinypill/rp-ext/-/raw/main/atl1c/releases/atl1c-3.10.105.tgz",
      "sha256": "5c75a1f4426fd296da83d2fec7de1efcf6af2e75a0107a9fe7d8d171d4292692",
      "packed": true
    },
    {
      "name": "check-atl1c.sh",
      "url": "https://gitlab.com/tinypill/rp-ext/-/raw/main/atl1c/src/check-atl1c.sh",
      "sha256": "72f49168803fb12840215370379198dfe07c14cc9bf7f9dd82b28fae88162eac",
      "packed": false
    }
  ],

  "kmods": {
    "atl1c.ko": ""
  },

    "scripts": {
    "on_boot": "check-atl1c.sh"
  }

}
