{
  "mod_version": "v1",

  "files": [
    {
      "name": "atl1c-3.10.108.tgz",
      "url": "https://gitlab.com/tinypill/rp-ext/-/raw/main/atl1c/releases/atl1c-3.10.108.tgz",
      "sha256": "befffd0edb78db3788c25b51e36f241d906aaa6204e8671837e88226154fe77b",
      "packed": true
    },
    {
      "name": "check-atl1c.sh",
      "url": "https://gitlab.com/tinypill/rp-ext/-/raw/main/atl1c/src/check-atl1c.sh",
      "sha256": "72f49168803fb12840215370379198dfe07c14cc9bf7f9dd82b28fae88162eac",
      "packed": false
    }
  ],

  "kmods": {
    "atl1c.ko": ""
  },

    "scripts": {
    "on_boot": "check-atl1c.sh"
  }

}
