{
  "mod_version": "v1",

  "files": [
    {
      "name": "sky2-3.10.105.tgz",
      "url": "https://gitlab.com/tinypill/rp-ext/-/raw/main/sky2/releases/sky2-3.10.105.tgz",
      "sha256": "a3cf95214bb2d73ee2543914d568d6a1161db589d309aa0704c34c91a6d9c372",
      "packed": true
    },
    {
      "name": "check-sky2.sh",
      "url": "https://gitlab.com/tinypill/rp-ext/-/raw/main/sky2/src/check-sky2.sh",
      "sha256": "58e6a44bb72932aebf4fe1f2ad584c97d4dbe2975e5092b173bd64e83afd9499",
      "packed": false
    }
  ],

  "kmods": {
    "sky2.ko": ""
  },

    "scripts": {
    "on_boot": "check-sky2.sh"
  }

}
