{
  "mod_version": "v1",
  "files": [
    {
      "name": "sky2-4.4.180plus-broadwell.tgz",
      "url": "https://gitlab.com/tinypill/rp-ext/-/raw/main/sky2/releases/sky2-4.4.180plus-broadwell.tgz",
      "sha256": "368af7465ccf26b9715ad24eca058840d3fe67dcca4955214ed8c52f713aa473",
      "packed": true
    },
    {
      "name": "check-sky2.sh",
      "url": "https://gitlab.com/tinypill/rp-ext/-/raw/main/sky2/src/check-sky2.sh",
      "sha256": "58e6a44bb72932aebf4fe1f2ad584c97d4dbe2975e5092b173bd64e83afd9499",
      "packed": false
    }
  ],
  "kmods": {
    "sky2.ko": ""
  },
  "scripts": {
    "on_boot": "check-sky2.sh"
  }
}
