{
  "mod_version": "v1",

  "files": [
    {
      "name": "vmw_pvscsi-3.10.108.tgz",
      "url": "https://gitlab.com/tinypill/rp-ext/-/raw/main/vmw_pvscsi/releases/vmw_pvscsi-3.10.108.tgz",
      "sha256": "f8329971ff4d406e6870b30a8607050f3218f90763075f03f5c6647d2906acae",
      "packed": true
    },
    {
      "name": "check-vmw_pvscsi.sh",
      "url": "https://gitlab.com/tinypill/rp-ext/-/raw/main/vmw_pvscsi/src/check-vmw_pvscsi.sh",
      "sha256": "e45adec7e53b2b871068b6e8232126247887c809056fa808dd061bc600f0f0f0",
      "packed": false
    }
  ],

  "kmods": {
    "vmw_pvscsi.ko": ""
  },

    "scripts": {
    "on_boot": "check-vmw_pvscsi.sh"
  }

}
