{
  "mod_version": "v1",

  "files": [
    {
      "name": "vmw_pvscsi-3.10.105.tgz",
      "url": "https://gitlab.com/tinypill/rp-ext/-/raw/main/vmw_pvscsi/releases/vmw_pvscsi-3.10.105.tgz",
      "sha256": "9742914d8405462f7b41e428232bb99826a2ee0ede4740e4da82d13dd1c34e47",
      "packed": true
    },
    {
      "name": "check-vmw_pvscsi.sh",
      "url": "https://gitlab.com/tinypill/rp-ext/-/raw/main/vmw_pvscsi/src/check-vmw_pvscsi.sh",
      "sha256": "e45adec7e53b2b871068b6e8232126247887c809056fa808dd061bc600f0f0f0",
      "packed": false
    }
  ],

  "kmods": {
    "vmw_pvscsi.ko": ""
  },

    "scripts": {
    "on_boot": "check-vmw_pvscsi.sh"
  }

}
