{
  "mod_version": "v1",

  "files": [
    {
      "name": "ixgbe-3.10.108.tgz",
      "url": "https://gitlab.com/tinypill/rp-ext/-/raw/main/ixgbe/releases/ixgbe-3.10.108.tgz",
      "sha256": "914df746f0f4935cb261f18ebf6d1251aa887c68a4075cd188511fec16fac9ba",
      "packed": true
    },
    {
      "name": "check-ixgbe.sh",
      "url": "https://gitlab.com/tinypill/rp-ext/-/raw/main/ixgbe/src/check-ixgbe.sh",
      "sha256": "af25f8357bc4eb8b300ed0ecd84bf081e1e469a1cd7d9b341289ae7dba2814e6",
      "packed": false
    }
  ],

  "kmods": {
    "dca.ko": "",
    "ixgbe.ko":""
  },

    "scripts": {
    "on_boot": "check-ixgbe.sh"
  }

}
