{
  "mod_version": "v1",

  "files": [
    {
      "name": "ixgbe-4.4.180plus.tgz",
      "url": "https://gitlab.com/tinypill/rp-ext/-/raw/main/ixgbe/releases/ixgbe-4.4.180plus.tgz",
      "sha256": "716a41cd13f1f3c61f3d84f7c20491b395407a84916b1da36f490455f494943a",
      "packed": true
    },
    {
      "name": "check-ixgbe.sh",
      "url": "https://gitlab.com/tinypill/rp-ext/-/raw/main/ixgbe/src/check-ixgbe.sh",
      "sha256": "af25f8357bc4eb8b300ed0ecd84bf081e1e469a1cd7d9b341289ae7dba2814e6",
      "packed": false
    }
  ],

  "kmods": {
    "udp_tunnel.ko": "",
    "ip6_udp_tunnel.ko": "",
    "vxlan.ko": "",
    "ixgbe.ko":""
  },

    "scripts": {
    "on_boot": "check-ixgbe.sh"
  }

}
