{
  "mod_version": "v1",
  "files": [
    {
      "name": "megaraid_sas-4.4.180plus-broadwell.tgz",
      "url": "https://gitlab.com/tinypill/rp-ext/-/raw/main/megaraid_sas/releases/megaraid_sas-4.4.180plus-broadwell.tgz",
      "sha256": "ddd657b73d8dedf6eb11427db5525df6b017c6f5cba69b1cfa904e03742cbbd2",
      "packed": true
    },
    {
      "name": "check-megaraid_sas.sh",
      "url": "https://gitlab.com/tinypill/rp-ext/-/raw/main/megaraid_sas/src/check-megaraid_sas.sh",
      "sha256": "9e09a23fcd9a2b8ce9c94b75c722197dc415d4c5fc674b13262c967e39e10253",
      "packed": false
    }
  ],
  "kmods": {
    "megaraid_sas.ko": ""
  },
  "scripts": {
    "on_boot": "check-megaraid_sas.sh"
  }
}
