{
  "id": "pocopico.ixgbe.vanilla",
  "url": "https://gitlab.com/tinypill/rp-ext/-/raw/main/ixgbe.vanilla/rpext-index.json",
  "info": {
    "name": "ixgbe",
    "description": "Adds Intel(R) 10GbE PCI Express Linux Network Driver Support",
    "author_url": "https://gitlab.com/tinypill",
    "packer_url": "https://gitlab.com/tinypill/rp-ext/-/tree/main/ixgbe.vanilla",
    "help_url": "<todo>"
  },
  "releases": {
    "ds3615xs_42218": "https://gitlab.com/tinypill/rp-ext/-/raw/main/ixgbe.vanilla/releases/ds3615xs_42218.json"
  }
}
