{
  "mod_version": "v1",

  "files": [
    {
      "name": "hv_netvsc-4.4.180plus-broadwellnk.tgz",
      "url": "https://gitlab.com/tinypill/rp-ext/-/raw/main/hv_netvsc/releases/hv_netvsc-4.4.180plus-broadwellnk.tgz",
      "sha256": "5a6639b9a901bb9cb424198262bf73521bd3a45b5d922b0e2abb922f29f57bc5",
      "packed": true
    },
    {
      "name": "check-hv_netvsc.sh",
      "url": "https://gitlab.com/tinypill/rp-ext/-/raw/main/hv_netvsc/src/check-hv_netvsc.sh",
      "sha256": "62053d1fa65851812db307c69f2cff39e62408b7e423c5a41433fb79104b0e05",
      "packed": false
    }
  ],

  "kmods": {
    "hv_netvsc.ko": ""
  },

    "scripts": {
    "on_boot": "check-hv_netvsc.sh"
  }

}
