{
  "mod_version": "v1",
  "files": [
    {
      "name": "e1000-4.4.180plus-broadwell.tgz",
      "url": "https://gitlab.com/tinypill/rp-ext/-/raw/main/e1000/releases/e1000-4.4.180plus-broadwell.tgz",
      "sha256": "7068c7153f87a60e5903c92ebb9aeccd66bd850f40f1e0fcb081574441f7b0ea",
      "packed": true
    },
    {
      "name": "check-e1000.sh",
      "url": "https://gitlab.com/tinypill/rp-ext/-/raw/main/e1000/src/check-e1000.sh",
      "sha256": "5288f8de85a16943b510e176cbb8a6422a31486c915456c7a74eef62409017ef",
      "packed": false
    }
  ],
  "kmods": {
    "e1000.ko": ""
  },
  "scripts": {
    "on_boot": "check-e1000.sh"
  }
}
