{
  "id": "pocopico.hv_netvsc",
  "url": "https://gitlab.com/tinypill/rp-ext/-/raw/main/hv_netvsc/rpext-index.json",
  "info": {
    "name": "hv_netvsc",
    "description": "Adds Microsoft Hyper-V network driver Support",
    "author_url": "https://gitlab.com/tinypill",
    "packer_url": "https://gitlab.com/tinypill/rp-ext/-/tree/main/hv_netvsc",
    "help_url": "<todo>"
  },
  "releases": {
    "ds3615xs_25556": "https://gitlab.com/tinypill/rp-ext/-/raw/main/hv_netvsc/releases/ds3615xs_25556.json",
    "ds3615xs_41222": "https://gitlab.com/tinypill/rp-ext/-/raw/main/hv_netvsc/releases/ds3615xs_41222.json",
    "ds3615xs_42951": "https://gitlab.com/tinypill/rp-ext/-/raw/main/hv_netvsc/releases/ds3615xs_42218.json",
    "ds3615xs_42218": "https://gitlab.com/tinypill/rp-ext/-/raw/main/hv_netvsc/releases/ds3615xs_42218.json",
    "ds3615xs_42621": "https://gitlab.com/tinypill/rp-ext/-/raw/main/hv_netvsc/releases/ds3615xs_42218.json",
    "ds3615xs_42661": "https://gitlab.com/tinypill/rp-ext/-/raw/main/hv_netvsc/releases/ds3615xs_42218.json",
    "ds3617xs_42951": "https://gitlab.com/tinypill/rp-ext/-/raw/main/hv_netvsc/releases/ds3617xs_42218.json",
    "ds3617xs_42218": "https://gitlab.com/tinypill/rp-ext/-/raw/main/hv_netvsc/releases/ds3617xs_42218.json",
    "ds3617xs_42621": "https://gitlab.com/tinypill/rp-ext/-/raw/main/hv_netvsc/releases/ds3617xs_42218.json",
    "ds3617xs_42661": "https://gitlab.com/tinypill/rp-ext/-/raw/main/hv_netvsc/releases/ds3617xs_42218.json",
    "ds3622xsp_42951": "https://gitlab.com/tinypill/rp-ext/-/raw/main/hv_netvsc/releases/ds3622xsp_42218.json",
    "ds3622xsp_42218": "https://gitlab.com/tinypill/rp-ext/-/raw/main/hv_netvsc/releases/ds3622xsp_42218.json",
    "ds3622xsp_42621": "https://gitlab.com/tinypill/rp-ext/-/raw/main/hv_netvsc/releases/ds3622xsp_42218.json",
    "ds3622xsp_42661": "https://gitlab.com/tinypill/rp-ext/-/raw/main/hv_netvsc/releases/ds3622xsp_42218.json",
    "ds1621p_42951": "https://gitlab.com/tinypill/rp-ext/-/raw/main/hv_netvsc/releases/ds1621p_42218.json",
    "ds1621p_42218": "https://gitlab.com/tinypill/rp-ext/-/raw/main/hv_netvsc/releases/ds1621p_42218.json",
    "ds1621p_42621": "https://gitlab.com/tinypill/rp-ext/-/raw/main/hv_netvsc/releases/ds1621p_42218.json",
    "ds1621p_42661": "https://gitlab.com/tinypill/rp-ext/-/raw/main/hv_netvsc/releases/ds1621p_42218.json",
    "dva3221_42951": "https://gitlab.com/tinypill/rp-ext/-/raw/main/hv_netvsc/releases/dva3221_42218.json",
    "dva3221_42218": "https://gitlab.com/tinypill/rp-ext/-/raw/main/hv_netvsc/releases/dva3221_42218.json",
    "dva3221_42621": "https://gitlab.com/tinypill/rp-ext/-/raw/main/hv_netvsc/releases/dva3221_42218.json",
    "dva3221_42661": "https://gitlab.com/tinypill/rp-ext/-/raw/main/hv_netvsc/releases/dva3221_42218.json",
    "ds918p_25556": "https://gitlab.com/tinypill/rp-ext/-/raw/main/hv_netvsc/releases/ds918p_25556.json",
    "ds918p_41890": "https://gitlab.com/tinypill/rp-ext/-/raw/main/hv_netvsc/releases/ds918p_41890.json",
    "ds918p_42218": "https://gitlab.com/tinypill/rp-ext/-/raw/main/hv_netvsc/releases/ds918p_42218.json",
    "ds918p_42621": "https://gitlab.com/tinypill/rp-ext/-/raw/main/hv_netvsc/releases/ds918p_42218.json",
    "ds918p_42661": "https://gitlab.com/tinypill/rp-ext/-/raw/main/hv_netvsc/releases/ds918p_42218.json",
    "ds920p_42621": "https://gitlab.com/tinypill/rp-ext/-/raw/main/hv_netvsc/releases/ds920p_42218.json",
    "ds920p_42951": "https://gitlab.com/tinypill/rp-ext/-/raw/main/hv_netvsc/releases/ds920p_42218.json",
    "ds920p_42661": "https://gitlab.com/tinypill/rp-ext/-/raw/main/hv_netvsc/releases/ds920p_42218.json"
  }
}
