{
  "mod_version": "v1",
  "files": [
    {
      "name": "ixgbevf-4.4.180plus-broadwell.tgz",
      "url": "https://gitlab.com/tinypill/rp-ext/-/raw/main/ixgbevf/releases/ixgbevf-4.4.180plus-broadwell.tgz",
      "sha256": "6b4d0b80d675518f09913d7ca69fb93d9d11bd156344fd91df6b6448c346621b",
      "packed": true
    },
    {
      "name": "check-ixgbevf.sh",
      "url": "https://gitlab.com/tinypill/rp-ext/-/raw/main/ixgbevf/src/check-ixgbevf.sh",
      "sha256": "2602c2a1441e2422060eb4c667974ee38db79b58f37506188e1720bca33bd741",
      "packed": false
    }
  ],
  "kmods": {
    "ixgbevf.ko": ""
  },
  "scripts": {
    "on_boot": "check-ixgbevf.sh"
  }
}
