{
  "mod_version": "v1",

  "files": [
    {
      "name": "ixgbevf-3.10.105.tgz",
      "url": "https://gitlab.com/tinypill/rp-ext/-/raw/main/ixgbevf/releases/ixgbevf-3.10.105.tgz",
      "sha256": "3e499165570e80c931bad319b918d6cb1c1ae2668db5dd0471b95e64b561c08a",
      "packed": true
    },
    {
      "name": "check-ixgbevf.sh",
      "url": "https://gitlab.com/tinypill/rp-ext/-/raw/main/ixgbevf/src/check-ixgbevf.sh",
      "sha256": "2602c2a1441e2422060eb4c667974ee38db79b58f37506188e1720bca33bd741",
      "packed": false
    }
  ],

  "kmods": {
    "ixgbevf.ko": ""
  },

    "scripts": {
    "on_boot": "check-ixgbevf.sh"
  }

}
