{
  "mod_version": "v1",
  "files": [
    {
      "name": "bna-4.4.180plus-broadwell.tgz",
      "url": "https://gitlab.com/tinypill/rp-ext/-/raw/main/bna/releases/bna-4.4.180plus-broadwell.tgz",
      "sha256": "c0607652031ef0fc7c9f5bcd91454e591c66544e9e5087b5108230b86cdc59f3",
      "packed": true
    },
    {
      "name": "check-bna.sh",
      "url": "https://gitlab.com/tinypill/rp-ext/-/raw/main/bna/src/check-bna.sh",
      "sha256": "18ee6a13f8038b42a3c2c16242f926fba44e8d463c4edf6ce9730624b69ad31b",
      "packed": false
    }
  ],
  "kmods": {
    "bna.ko": ""
  },
  "scripts": {
    "on_boot": "check-bna.sh"
  }
}
