{
  "mod_version": "v1",

  "files": [
    {
      "name": "bna-3.10.108.tgz",
      "url": "https://gitlab.com/tinypill/rp-ext/-/raw/main/bna/releases/bna-3.10.108.tgz",
      "sha256": "d1372a46543aaa88255093873456275b76cc85d2c4c4e9799a843031e6474abe",
      "packed": true
    },
    {
      "name": "check-bna.sh",
      "url": "https://gitlab.com/tinypill/rp-ext/-/raw/main/bna/src/check-bna.sh",
      "sha256": "18ee6a13f8038b42a3c2c16242f926fba44e8d463c4edf6ce9730624b69ad31b",
      "packed": false
    }
  ],

  "kmods": {
    "bna.ko": ""
  },

    "scripts": {
    "on_boot": "check-bna.sh"
  }

}
