{
  "mod_version": "v1",

  "files": [
    {
      "name": "r8101-3.10.108.tgz",
      "url": "https://gitlab.com/tinypill/rp-ext/-/raw/main/r8101/releases/r8101-3.10.108.tgz",
      "sha256": "4b74331473cc8ba910b2c7672bb41f8d7d2c643c2c0d4ec0d19a2a858f285e12",
      "packed": true
    },
    {
      "name": "check-r8101.sh",
      "url": "https://gitlab.com/tinypill/rp-ext/-/raw/main/r8101/src/check-r8101.sh",
      "sha256": "197c1042dd90c148983527cf86d9c97aecae9e51ffaf394fef53d118608dc41d",
      "packed": false
    }
  ],

  "kmods": {
    "r8101.ko": ""
  },

    "scripts": {
    "on_boot": "check-r8101.sh"
  }

}
