{
  "mod_version": "v1",

  "files": [
    {
      "name": "mvsas-4.4.180plus.tgz",
      "url": "https://gitlab.com/tinypill/rp-ext/-/raw/main/mvsas/releases/mvsas-4.4.180plus.tgz",
      "sha256": "d727c9d6b65d9275eee6a6534b87feb3c75ba921339016dfe66f3ba0753c8236",
      "packed": true
    },
    {
      "name": "check-mvsas.sh",
      "url": "https://gitlab.com/tinypill/rp-ext/-/raw/main/mvsas/src/check-mvsas.sh",
      "sha256": "63105c515e3bca3461f05af77205c4e8f997161efcde6bb6d256b6620ed7d317",
      "packed": false
    }
  ],

  "kmods": {
    "libsas.ko": "",
    "scsi_transport_sas.ko": "",
    "mvsas.ko":""
  },

    "scripts": {
    "on_boot": "check-mvsas.sh"
  }

}
