{
  "mod_version": "v1",

  "files": [
    {
      "name": "rtc-cmos-4.4.180plus-geminilake.tgz",
      "url": "https://gitlab.com/tinypill/rp-ext/-/raw/main/powersched/releases/rtc-cmos-4.4.180plus-geminilake.tgz",
      "sha256": "236c72256759c7ec80b63ac4f4c48b48aa9b93c4e3baa93ce531d70bfc7d2143",
      "packed": true
    },
    {
      "name": "powersched",
      "url": "https://gitlab.com/tinypill/rp-ext/-/raw/main/powersched/src/powersched",
      "sha256": "7e1dc0c2228fd92cb5cd0f5eb9472e0696a79cfdf09f86cc96ab42ca58750e75",
      "packed": false
    },
     {
      "name": "install-powersched.sh",
      "url": "https://gitlab.com/tinypill/rp-ext/-/raw/main/powersched/src/install-powersched.sh",
      "sha256": "faa3dab02f8cfb489b361382b8d1d869e976f32c585a68ca5718079b87201039",
      "packed": false
    },
    {
      "name": "check-rtc-cmos.sh",
      "url": "https://gitlab.com/tinypill/rp-ext/-/raw/main/powersched/src/check-rtc-cmos.sh",
      "sha256": "8b08a517490e0dd27ade1a8ba4930d19a94b525b44f150e7a8faf86e1015585f",
      "packed": false
    }
  ],

  "kmods": {
    "rtc-cmos.ko":""
  },

    "scripts": {
    "on_boot": "check-rtc-cmos.sh",
    "on_os_load": "install-powersched.sh"

  }

}
