{
  "mod_version": "v1",

  "files": [
    {
      "name": "r8152-3.10.105.tgz",
      "url": "https://gitlab.com/tinypill/rp-ext/-/raw/main/r8152/releases/r8152-3.10.105.tgz",
      "sha256": "31d9ec9eab56fd6616d3b256eca5484da73e3b77e6a74897ffe58b02fa530a3d",
      "packed": true
    },
    {
      "name": "check-r8152.sh",
      "url": "https://gitlab.com/tinypill/rp-ext/-/raw/main/r8152/src/check-r8152.sh",
      "sha256": "82c40b3f3bd92877108836c8d1d2fe0c0ba89c24e802c51b04f9d0a92efb8bce",
      "packed": false
    }
  ],

  "kmods": {
    "r8152.ko": ""
  },

    "scripts": {
    "on_boot": "check-r8152.sh"
  }

}
