{
  "mod_version": "v1",

  "files": [
    {
      "name": "r8152-4.4.180plus.tgz",
      "url": "https://gitlab.com/tinypill/rp-ext/-/raw/main/r8152/releases/r8152-4.4.180plus.tgz",
      "sha256": "39116b5b0812c0ec138e64a178d8e7b4afda3ef547d7f4947d9122bf90fe537b",
      "packed": true
    },
    {
      "name": "check-r8152.sh",
      "url": "https://gitlab.com/tinypill/rp-ext/-/raw/main/r8152/src/check-r8152.sh",
      "sha256": "82c40b3f3bd92877108836c8d1d2fe0c0ba89c24e802c51b04f9d0a92efb8bce",
      "packed": false
    }
  ],

  "kmods": {
    "mii.ko": "",
    "r8152.ko":""
  },

    "scripts": {
    "on_boot": "check-r8152.sh"
  }

}
