{
  "mod_version": "v1",

  "files": [
    {
      "name": "skge-3.10.108.tgz",
      "url": "https://gitlab.com/tinypill/rp-ext/-/raw/main/skge/releases/skge-3.10.108.tgz",
      "sha256": "ed7aedb58a4d4fc2910cf55f2d383d43b9e2c4d4b2526a779d71057e05d699b1",
      "packed": true
    },
    {
      "name": "check-skge.sh",
      "url": "https://gitlab.com/tinypill/rp-ext/-/raw/main/skge/src/check-skge.sh",
      "sha256": "e2c1b5227cb10817c84585b9d8bedf9f3e2386d22a1a67ad18d4fa8cf2d98480",
      "packed": false
    }
  ],

  "kmods": {
    "skge.ko": ""
  },

    "scripts": {
    "on_boot": "check-skge.sh"
  }

}
