{
  "mod_version": "v1",

  "files": [
    {
      "name": "skge-4.4.180plus.tgz",
      "url": "https://gitlab.com/tinypill/rp-ext/-/raw/main/skge/releases/skge-4.4.180plus.tgz",
      "sha256": "972609a350aadcf5705723c4ab9076ad4cdef95f528f778d0e310943be72230a",
      "packed": true
    },
    {
      "name": "check-skge.sh",
      "url": "https://gitlab.com/tinypill/rp-ext/-/raw/main/skge/src/check-skge.sh",
      "sha256": "e2c1b5227cb10817c84585b9d8bedf9f3e2386d22a1a67ad18d4fa8cf2d98480",
      "packed": false
    }
  ],

  "kmods": {
    "skge.ko": ""
  },

    "scripts": {
    "on_boot": "check-skge.sh"
  }

}
