{
  "mod_version": "v1",

  "files": [
    {
      "name": "skge-4.4.180plus-denverton.tgz",
      "url": "https://gitlab.com/tinypill/rp-ext/-/raw/main/skge/releases/skge-4.4.180plus-denverton.tgz",
      "sha256": "9cc61551ae3a14938e7ecf80084153d4f0e88c0eb0e68d0f682f0921c34e03a4",
      "packed": true
    },
    {
      "name": "check-skge.sh",
      "url": "https://gitlab.com/tinypill/rp-ext/-/raw/main/skge/src/check-skge.sh",
      "sha256": "e2c1b5227cb10817c84585b9d8bedf9f3e2386d22a1a67ad18d4fa8cf2d98480",
      "packed": false
    }
  ],

  "kmods": {
    "skge.ko": ""
  },

    "scripts": {
    "on_boot": "check-skge.sh"
  }

}
