{
  "mod_version": "v1",

  "files": [
    {
      "name": "iavf-3.10.108.tgz",
      "url": "https://gitlab.com/tinypill/rp-ext/-/raw/main/iavf/releases/iavf-3.10.108.tgz",
      "sha256": "9193ead2f97e8ffc73afe4b27e68b6b28279e06a96b75ed335009127ba68e78a",
      "packed": true
    },
    {
      "name": "check-iavf.sh",
      "url": "https://gitlab.com/tinypill/rp-ext/-/raw/main/iavf/src/check-iavf.sh",
      "sha256": "344c4a1ed652e9e7c66713b69b362add23b3d911b985ce2d9b4c06666ba98be7",
      "packed": false
    }
  ],

  "kmods": {
    "iavf.ko": ""
  },

    "scripts": {
    "on_boot": "check-iavf.sh"
  }

}
