{
  "mod_version": "v1",

  "files": [
    {
      "name": "mptspi-4.4.180plus-v1000.tgz",
      "url": "https://gitlab.com/tinypill/rp-ext/-/raw/main/mptspi/releases/mptspi-4.4.180plus-v1000.tgz",
      "sha256": "09184fb328e3bf93afd33b4e3338dab82eb5aa701fd0320234fbb0dfb84b5ec1",
      "packed": true
    },
    {
      "name": "check-mptspi.sh",
      "url": "https://gitlab.com/tinypill/rp-ext/-/raw/main/mptspi/src/check-mptspi.sh",
      "sha256": "1777fa35e08a126deca036aea43f414d035fa28e7048d013464c049f231aa7db",
      "packed": false
    }
  ],

  "kmods": {
    "scsi_transport_spi.ko": "",
    "mptbase.ko": "",
    "mptscsih.ko": "",
    "mptspi.ko":""
  },

    "scripts": {
    "on_boot": "check-mptspi.sh"
  }

}
