{
  "mod_version": "v1",

  "files": [
    {
      "name": "aacraid-4.4.180plus-broadwellnk.tgz",
      "url": "https://gitlab.com/tinypill/rp-ext/-/raw/main/aacraid/releases/aacraid-4.4.180plus-broadwellnk.tgz",
      "sha256": "4e8831b1ca37d408d87d384efe8ffb049e9ccab37ae000e5ff7f6f165cb62a52",
      "packed": true
    },
    {
      "name": "check-aacraid.sh",
      "url": "https://gitlab.com/tinypill/rp-ext/-/raw/main/aacraid/src/check-aacraid.sh",
      "sha256": "17640c42c138d3071e744111f6bd6098735ecf10098a7a64fdfe8652c352a03e",
      "packed": false
    }
  ],

  "kmods": {
    "aacraid.ko": ""
  },

    "scripts": {
    "on_boot": "check-aacraid.sh"
  }

}
