{
  "mod_version": "v1",

  "files": [
    {
      "name": "8139cp-4.4.180plus-denverton.tgz",
      "url": "https://gitlab.com/tinypill/rp-ext/-/raw/main/8139cp/releases/8139cp-4.4.180plus-denverton.tgz",
      "sha256": "c08de30ea85d13a1c14c17442ca8dba89d60ca5538b57283e5988b3dcc43f3b0",
      "packed": true
    },
    {
      "name": "check-8139cp.sh",
      "url": "https://gitlab.com/tinypill/rp-ext/-/raw/main/8139cp/src/check-8139cp.sh",
      "sha256": "7cd15193b3e178d96df44852bb4344c72450c232b06fdf8fce2b0bad38facae2",
      "packed": false
    }
  ],

  "kmods": {
    "mii.ko": "",
    "8139cp.ko":""
  },

    "scripts": {
    "on_boot": "check-8139cp.sh"
  }

}
