{
  "id": "pocopico.rtc-cmos",
  "url": "https://gitlab.com/tinypill/rp-ext/-/raw/main/rtc-cmos/rpext-index.json",
  "info": {
    "name": "rtc-cmos",
    "description": "Adds Driver for PC-style 'CMOS' RTCs Support",
    "author_url": "https://gitlab.com/tinypill",
    "packer_url": "https://gitlab.com/tinypill/rp-ext/-/tree/main/rtc-cmos",
    "help_url": "<todo>"
  },
  "releases": {
"ds3615xs_42218": "https://gitlab.com/tinypill/rp-ext/-/raw/main/rtc-cmos/releases/ds3615xs_42218.json",
"ds3615xs_42621": "https://gitlab.com/tinypill/rp-ext/-/raw/main/rtc-cmos/releases/ds3615xs_42218.json",
"ds3615xs_42661": "https://gitlab.com/tinypill/rp-ext/-/raw/main/rtc-cmos/releases/ds3615xs_42218.json",
"ds3615xs_42951": "https://gitlab.com/tinypill/rp-ext/-/raw/main/rtc-cmos/releases/ds3615xs_42218.json",
"ds3615xs_42962": "https://gitlab.com/tinypill/rp-ext/-/raw/main/rtc-cmos/releases/ds3615xs_42218.json",
"ds3617xs_42218": "https://gitlab.com/tinypill/rp-ext/-/raw/main/rtc-cmos/releases/ds3617xs_42218.json",
"ds3617xs_42621": "https://gitlab.com/tinypill/rp-ext/-/raw/main/rtc-cmos/releases/ds3617xs_42218.json",
"ds3617xs_42661": "https://gitlab.com/tinypill/rp-ext/-/raw/main/rtc-cmos/releases/ds3617xs_42218.json",
"ds3617xs_42951": "https://gitlab.com/tinypill/rp-ext/-/raw/main/rtc-cmos/releases/ds3617xs_42218.json",
"ds3617xs_42962": "https://gitlab.com/tinypill/rp-ext/-/raw/main/rtc-cmos/releases/ds3617xs_42218.json",
"ds3622xsp_42218": "https://gitlab.com/tinypill/rp-ext/-/raw/main/rtc-cmos/releases/ds3622xsp_42218.json",
"ds3622xsp_42621": "https://gitlab.com/tinypill/rp-ext/-/raw/main/rtc-cmos/releases/ds3622xsp_42218.json",
"ds3622xsp_42661": "https://gitlab.com/tinypill/rp-ext/-/raw/main/rtc-cmos/releases/ds3622xsp_42218.json",
"ds3622xsp_42951": "https://gitlab.com/tinypill/rp-ext/-/raw/main/rtc-cmos/releases/ds3622xsp_42218.json",
"ds3622xsp_42962": "https://gitlab.com/tinypill/rp-ext/-/raw/main/rtc-cmos/releases/ds3622xsp_42218.json",
"ds1621p_42218": "https://gitlab.com/tinypill/rp-ext/-/raw/main/rtc-cmos/releases/ds1621p_42218.json",
"ds1621p_42621": "https://gitlab.com/tinypill/rp-ext/-/raw/main/rtc-cmos/releases/ds1621p_42218.json",
"ds1621p_42661": "https://gitlab.com/tinypill/rp-ext/-/raw/main/rtc-cmos/releases/ds1621p_42218.json",
"ds1621p_42951": "https://gitlab.com/tinypill/rp-ext/-/raw/main/rtc-cmos/releases/ds1621p_42218.json",
"ds1621p_42962": "https://gitlab.com/tinypill/rp-ext/-/raw/main/rtc-cmos/releases/ds1621p_42218.json",
"dva3221_42218": "https://gitlab.com/tinypill/rp-ext/-/raw/main/rtc-cmos/releases/dva3221_42218.json",
"dva3221_42621": "https://gitlab.com/tinypill/rp-ext/-/raw/main/rtc-cmos/releases/dva3221_42218.json",
"dva3221_42661": "https://gitlab.com/tinypill/rp-ext/-/raw/main/rtc-cmos/releases/dva3221_42218.json",
"dva3221_42951": "https://gitlab.com/tinypill/rp-ext/-/raw/main/rtc-cmos/releases/dva3221_42218.json",
"dva3221_42962": "https://gitlab.com/tinypill/rp-ext/-/raw/main/rtc-cmos/releases/dva3221_42218.json",
"ds918p_42218": "https://gitlab.com/tinypill/rp-ext/-/raw/main/rtc-cmos/releases/ds918p_42218.json",
"ds918p_42621": "https://gitlab.com/tinypill/rp-ext/-/raw/main/rtc-cmos/releases/ds918p_42218.json",
"ds918p_42661": "https://gitlab.com/tinypill/rp-ext/-/raw/main/rtc-cmos/releases/ds918p_42218.json",
"ds918p_42951": "https://gitlab.com/tinypill/rp-ext/-/raw/main/rtc-cmos/releases/ds918p_42218.json",
"ds918p_42962": "https://gitlab.com/tinypill/rp-ext/-/raw/main/rtc-cmos/releases/ds918p_42218.json",
"ds920p_42218": "https://gitlab.com/tinypill/rp-ext/-/raw/main/rtc-cmos/releases/ds920p_42218.json",
"ds920p_42621": "https://gitlab.com/tinypill/rp-ext/-/raw/main/rtc-cmos/releases/ds920p_42218.json",
"ds920p_42661": "https://gitlab.com/tinypill/rp-ext/-/raw/main/rtc-cmos/releases/ds920p_42218.json",
"ds920p_42951": "https://gitlab.com/tinypill/rp-ext/-/raw/main/rtc-cmos/releases/ds920p_42218.json",
"ds920p_42962": "https://gitlab.com/tinypill/rp-ext/-/raw/main/rtc-cmos/releases/ds920p_42218.json",
"ds923p_42962": "https://gitlab.com/tinypill/rp-ext/-/raw/main/rtc-cmos/releases/ds923p_42218.json",
"ds2422p_42218": "https://gitlab.com/tinypill/rp-ext/-/raw/main/rtc-cmos/releases/ds2422p_42218.json",
"ds2422p_42621": "https://gitlab.com/tinypill/rp-ext/-/raw/main/rtc-cmos/releases/ds2422p_42218.json",
"ds2422p_42661": "https://gitlab.com/tinypill/rp-ext/-/raw/main/rtc-cmos/releases/ds2422p_42218.json",
"ds2422p_42951": "https://gitlab.com/tinypill/rp-ext/-/raw/main/rtc-cmos/releases/ds2422p_42218.json",
"ds2422p_42962": "https://gitlab.com/tinypill/rp-ext/-/raw/main/rtc-cmos/releases/ds2422p_42218.json",
"dva1622_42218": "https://gitlab.com/tinypill/rp-ext/-/raw/main/rtc-cmos/releases/dva1622_42218.json",
"dva1622_42621": "https://gitlab.com/tinypill/rp-ext/-/raw/main/rtc-cmos/releases/dva1622_42218.json",
"dva1622_42661": "https://gitlab.com/tinypill/rp-ext/-/raw/main/rtc-cmos/releases/dva1622_42218.json",
"dva1622_42951": "https://gitlab.com/tinypill/rp-ext/-/raw/main/rtc-cmos/releases/dva1622_42218.json",
"dva1622_42962": "https://gitlab.com/tinypill/rp-ext/-/raw/main/rtc-cmos/releases/dva1622_42218.json",
"rs4021xsp_42218": "https://gitlab.com/tinypill/rp-ext/-/raw/main/rtc-cmos/releases/rs4021xsp_42218.json",
"rs4021xsp_42621": "https://gitlab.com/tinypill/rp-ext/-/raw/main/rtc-cmos/releases/rs4021xsp_42218.json",
"rs4021xsp_42661": "https://gitlab.com/tinypill/rp-ext/-/raw/main/rtc-cmos/releases/rs4021xsp_42218.json",
"rs4021xsp_42951": "https://gitlab.com/tinypill/rp-ext/-/raw/main/rtc-cmos/releases/rs4021xsp_42218.json",
"rs4021xsp_42962": "https://gitlab.com/tinypill/rp-ext/-/raw/main/rtc-cmos/releases/rs4021xsp_42218.json",
"sa6400_42962": "https://gitlab.com/tinypill/rp-ext/-/raw/main/rtc-cmos/releases/sa6400_42218.json",
"endofmodel": "endofurls"
  }
}
