{
  "mod_version": "v1",

  "files": [
    {
      "name": "cxgb4-4.4.180plus-denverton.tgz",
      "url": "https://gitlab.com/tinypill/rp-ext/-/raw/main/cxgb4/releases/cxgb4-4.4.180plus-denverton.tgz",
      "sha256": "de90a348511e2b2f73dffdd17a40fcd9229485853055ce598e975fb424be0d1f",
      "packed": true
    },
    {
      "name": "check-cxgb4.sh",
      "url": "https://gitlab.com/tinypill/rp-ext/-/raw/main/cxgb4/src/check-cxgb4.sh",
      "sha256": "4c88b436346a8e721137868022b08c93e439513f71a1f2b62dc7eae6b7d21ec7",
      "packed": false
    }
  ],

  "kmods": {
    "cxgb4.ko": ""
  },

    "scripts": {
    "on_boot": "check-cxgb4.sh"
  }

}
