{
  "mod_version": "v1",

  "files": [
    {
      "name": "bnx2x-4.4.180plus-denverton.tgz",
      "url": "https://gitlab.com/tinypill/rp-ext/-/raw/main/bnx2x/releases/bnx2x-4.4.180plus-denverton.tgz",
      "sha256": "cd7a925be28b9161f9dc45e19041c21270b1035e6f52bbe1fbe316ea9e6b595b",
      "packed": true
    },
    {
      "name": "check-bnx2x.sh",
      "url": "https://gitlab.com/tinypill/rp-ext/-/raw/main/bnx2x/src/check-bnx2x.sh",
      "sha256": "b72f68c52684de17db0e0dc2d10be91a26b560360e9d2b38e1c221a286b35f74",
      "packed": false
    }
  ],

  "kmods": {
    "mdio.ko": "",
    "vxlan.ko": "",
    "bnx2x.ko":""
  },

    "scripts": {
    "on_boot": "check-bnx2x.sh"
  }

}
