{
  "mod_version": "v1",

  "files": [
    {
      "name": "igc-4.4.180plus-geminilake.tgz",
      "url": "https://gitlab.com/tinypill/rp-ext/-/raw/main/igc/releases/igc-4.4.180plus-geminilake.tgz",
      "sha256": "ae68d1cbede1bf145c477f6c2506f024535bc50dda978cf1756dae23eac12fdd",
      "packed": true
    },
    {
      "name": "check-igc.sh",
      "url": "https://gitlab.com/tinypill/rp-ext/-/raw/main/igc/src/check-igc.sh",
      "sha256": "4892e37cc4f974700b88332e005d61676257876938f8e57677c655a2eca5a8ef",
      "packed": false
    }
  ],

  "kmods": {
    "igc.ko": ""
  },

    "scripts": {
    "on_boot": "check-igc.sh"
  }

}
