{
  "mod_version": "v1",

  "files": [
    {
      "name": "8139too-4.4.59plus.tgz",
      "url": "https://gitlab.com/tinypill/rp-ext/-/raw/main/8139too/releases/8139too-4.4.59plus.tgz",
      "sha256": "5ccacba05f27197af70387acfa30122eedc2062af8274a40fb498faf85ceab81",
      "packed": true
    },
    {
      "name": "check-8139too.sh",
      "url": "https://gitlab.com/tinypill/rp-ext/-/raw/main/8139too/src/check-8139too.sh",
      "sha256": "709c03f879bbbf32b504345c8653e057690675b6f030ed6f19b7ab6e1bd6f8e2",
      "packed": false
    }
  ],

  "kmods": {
    "8139too.ko": ""
  },

    "scripts": {
    "on_boot": "check-8139too.sh"
  }

}
