{
  "mod_version": "v1",

  "files": [
    {
      "name": "8139too-4.4.180plus-denverton.tgz",
      "url": "https://gitlab.com/tinypill/rp-ext/-/raw/main/8139too/releases/8139too-4.4.180plus-denverton.tgz",
      "sha256": "917b9e5943038b0c097824ae998c8f875d9b61d7e97248f57932b7e626037fe7",
      "packed": true
    },
    {
      "name": "check-8139too.sh",
      "url": "https://gitlab.com/tinypill/rp-ext/-/raw/main/8139too/src/check-8139too.sh",
      "sha256": "709c03f879bbbf32b504345c8653e057690675b6f030ed6f19b7ab6e1bd6f8e2",
      "packed": false
    }
  ],

  "kmods": {
    "mii.ko": "",
    "8139too.ko":""
  },

    "scripts": {
    "on_boot": "check-8139too.sh"
  }

}
