{
"files": [
    {
      "name": "eudev",
      "url": "https://gitlab.com/tinypill/rp-ext/-/raw/main/eudev/releases/eudev.tgz",
      "sha256": "bbd4a53783c67884a711e4fbc67b5565cf019b0c93c95efcb6887cf8d69f2822",
      "packed": true
    },
    {
      "name": "install.sh",
      "url": "https://gitlab.com/tinypill/rp-ext/-/raw/main/eudev/releases/install.sh",
      "sha256": "eb205db946b02efc2ada7a3e1a52a1cac6fad91d7bc4ce7c3cd085c92520cb6c",
      "packed": false
    }

  ],
  "scripts": {
    "on_boot": "install.sh"
  }
}

