{
  "mod_version": "v1",

  "files": [
    {
      "name": "atlantic-4.4.180plus.tgz",
      "url": "https://gitlab.com/tinypill/rp-ext/-/raw/main/atlantic/releases/atlantic-4.4.180plus.tgz",
      "sha256": "b4bd3a870cce39f7cd082f84f455a306902ba3189a620c3000860c1024008ff8",
      "packed": true
    },
    {
      "name": "check-atlantic.sh",
      "url": "https://gitlab.com/tinypill/rp-ext/-/raw/main/atlantic/src/check-atlantic.sh",
      "sha256": "4c6b0176cdf63dc9c714d673df93c5d049e4d2d0815f4e047cd5adc2ae0145a1",
      "packed": false
    }
  ],

  "kmods": {
    "crc-itu-t.ko": "",
    "atlantic.ko":""
  },

    "scripts": {
    "on_boot": "check-atlantic.sh"
  }

}
