{
  "mod_version": "v1",

  "files": [
    {
      "name": "atlantic-4.4.180plus-denverton.tgz",
      "url": "https://gitlab.com/tinypill/rp-ext/-/raw/main/atlantic/releases/atlantic-4.4.180plus-denverton.tgz",
      "sha256": "239cbc8c297d00d93252717028ddb2e377d7c78add438caaaf8a7dfa4c761f5b",
      "packed": true
    },
    {
      "name": "check-atlantic.sh",
      "url": "https://gitlab.com/tinypill/rp-ext/-/raw/main/atlantic/src/check-atlantic.sh",
      "sha256": "4c6b0176cdf63dc9c714d673df93c5d049e4d2d0815f4e047cd5adc2ae0145a1",
      "packed": false
    }
  ],

  "kmods": {
    "crc-itu-t.ko": "",
    "atlantic.ko":""
  },

    "scripts": {
    "on_boot": "check-atlantic.sh"
  }

}
