{
  "mod_version": "v1",
  "files": [
    {
      "name": "atl1-4.4.180plus-broadwell.tgz",
      "url": "https://gitlab.com/tinypill/rp-ext/-/raw/main/atl1/releases/atl1-4.4.180plus-broadwell.tgz",
      "sha256": "391d268a56bf185ba36486053cb64a78ae49ca1c1482c6ecf86040097e62bee6",
      "packed": true
    },
    {
      "name": "check-atl1.sh",
      "url": "https://gitlab.com/tinypill/rp-ext/-/raw/main/atl1/src/check-atl1.sh",
      "sha256": "22ff442eb27a973c688d210f16b9475a7238f9a0cf1373f556d8cc44458674e5",
      "packed": false
    }
  ],
  "kmods": {
    "mii.ko": "",
    "atl1.ko": ""
  },
  "scripts": {
    "on_boot": "check-atl1.sh"
  }
}
