{
  "mod_version": "v1",

  "files": [
    {
      "name": "atl1-3.10.108.tgz",
      "url": "https://gitlab.com/tinypill/rp-ext/-/raw/main/atl1/releases/atl1-3.10.108.tgz",
      "sha256": "7150456bfb4eab65a445ec2de76a4b6ce128809ad89b5fcb0895826a1ee6d97d",
      "packed": true
    },
    {
      "name": "check-atl1.sh",
      "url": "https://gitlab.com/tinypill/rp-ext/-/raw/main/atl1/src/check-atl1.sh",
      "sha256": "22ff442eb27a973c688d210f16b9475a7238f9a0cf1373f556d8cc44458674e5",
      "packed": false
    }
  ],

  "kmods": {
    "mii.ko": "",
    "atl1.ko":""
  },

    "scripts": {
    "on_boot": "check-atl1.sh"
  }

}
