{
  "mod_version": "v1",

  "files": [
    {
      "name": "atl1-4.4.180plus-broadwellnk.tgz",
      "url": "https://gitlab.com/tinypill/rp-ext/-/raw/main/atl1/releases/atl1-4.4.180plus-broadwellnk.tgz",
      "sha256": "da90bcdfc748075a52342bcece804a5b09a1a0bbd95f45bafe9f48f9034a2ef0",
      "packed": true
    },
    {
      "name": "check-atl1.sh",
      "url": "https://gitlab.com/tinypill/rp-ext/-/raw/main/atl1/src/check-atl1.sh",
      "sha256": "22ff442eb27a973c688d210f16b9475a7238f9a0cf1373f556d8cc44458674e5",
      "packed": false
    }
  ],

  "kmods": {
    "mii.ko": "",
    "atl1.ko":""
  },

    "scripts": {
    "on_boot": "check-atl1.sh"
  }

}
