{
  "mod_version": "v1",

  "files": [
    {
      "name": "r8169-4.4.180plus-denverton.tgz",
      "url": "https://gitlab.com/tinypill/rp-ext/-/raw/main/r8169/releases/r8169-4.4.180plus-denverton.tgz",
      "sha256": "f9ff015449ab7627b5077f87ca2c10f150ba335a0eb029f9cd29631b7a894250",
      "packed": true
    },
    {
      "name": "check-r8169.sh",
      "url": "https://gitlab.com/tinypill/rp-ext/-/raw/main/r8169/src/check-r8169.sh",
      "sha256": "d9d57d704d83fdb3eaba72096511ba6b43a44da014ffa4b079dcaced3a9005a0",
      "packed": false
    }
  ],

  "kmods": {
    "mii.ko": "",
    "r8169.ko":""
  },

    "scripts": {
    "on_boot": "check-r8169.sh"
  }

}
