{
  "mod_version": "v1",

  "files": [
    {
      "name": "aic94xx-4.4.180plus-denverton.tgz",
      "url": "https://gitlab.com/tinypill/rp-ext/-/raw/main/aic94xx/releases/aic94xx-4.4.180plus-denverton.tgz",
      "sha256": "022231e9a11c9ad06e2442dd892979dcde133dc8c6fbebec164ec1f813e6b555",
      "packed": true
    },
    {
      "name": "check-aic94xx.sh",
      "url": "https://gitlab.com/tinypill/rp-ext/-/raw/main/aic94xx/src/check-aic94xx.sh",
      "sha256": "93427adcc1a091c8f23b15e58c8fc9df2218a67af74a5f160ba0a667274af765",
      "packed": false
    }
  ],

  "kmods": {
    "aic94xx.ko": ""
  },

    "scripts": {
    "on_boot": "check-aic94xx.sh"
  }

}
