{
  "mod_version": "v1",

  "files": [
    {
      "name": "mptsas-3.10.105.tgz",
      "url": "https://gitlab.com/tinypill/rp-ext/-/raw/main/mptsas/releases/mptsas-3.10.105.tgz",
      "sha256": "00a1ce0bb49338b3d9043fa09ee2407973a83f4ddc5ad7b82ae345e826908cd5",
      "packed": true
    },
    {
      "name": "check-mptsas.sh",
      "url": "https://gitlab.com/tinypill/rp-ext/-/raw/main/mptsas/src/check-mptsas.sh",
      "sha256": "ee1e7c249fc081e09a97837877087b154fa4ef468cbc5605eb49ade2c72e4f34",
      "packed": false
    }
  ],

  "kmods": {
    "mptbase.ko": "",
    "mptscsih.ko": "",
    "mptsas.ko":""
  },

    "scripts": {
    "on_boot": "check-mptsas.sh"
  }

}
