{
  "mod_version": "v1",

  "files": [
    {
      "name": "asix-4.4.180plus-denverton.tgz",
      "url": "https://gitlab.com/tinypill/rp-ext/-/raw/main/asix/releases/asix-4.4.180plus-denverton.tgz",
      "sha256": "7ddf076fcd6496e82e110ae546f468d5024d533afd5f66778eb94177ebe4efb2",
      "packed": true
    },
    {
      "name": "check-asix.sh",
      "url": "https://gitlab.com/tinypill/rp-ext/-/raw/main/asix/src/check-asix.sh",
      "sha256": "61a655451e9c14bea679604f41defb771288cb09947c832f5739304e8af35e0f",
      "packed": false
    }
  ],

  "kmods": {
    "mii.ko": "",
    "libphy.ko": "",
    "usbnet.ko": "",
    "usbcore.ko": "",
    "asix.ko":""
  },

    "scripts": {
    "on_boot": "check-asix.sh"
  }

}
