{
  "mod_version": "v1",

  "files": [
    {
      "name": "via-rhine-3.10.105.tgz",
      "url": "https://gitlab.com/tinypill/rp-ext/-/raw/main/via-rhine/releases/via-rhine-3.10.105.tgz",
      "sha256": "b81f2d50fc7e58b74facdd6b1f472812ae9d6e7458327f88c781ae42f7936c75",
      "packed": true
    },
    {
      "name": "check-via-rhine.sh",
      "url": "https://gitlab.com/tinypill/rp-ext/-/raw/main/via-rhine/src/check-via-rhine.sh",
      "sha256": "07a7e3203e04891fd6182e830b48f180171be32f925aa6dad421593c851a187e",
      "packed": false
    }
  ],

  "kmods": {
    "via-rhine.ko": ""
  },

    "scripts": {
    "on_boot": "check-via-rhine.sh"
  }

}
