{
  "mod_version": "v1",

  "files": [
    {
      "name": "via-rhine-4.4.180plus-geminilake.tgz",
      "url": "https://gitlab.com/tinypill/rp-ext/-/raw/main/via-rhine/releases/via-rhine-4.4.180plus-geminilake.tgz",
      "sha256": "24fe250d7f881a33940878a3b570feeaaf07d49d7b7f69b27480eb0d13249cd4",
      "packed": true
    },
    {
      "name": "check-via-rhine.sh",
      "url": "https://gitlab.com/tinypill/rp-ext/-/raw/main/via-rhine/src/check-via-rhine.sh",
      "sha256": "07a7e3203e04891fd6182e830b48f180171be32f925aa6dad421593c851a187e",
      "packed": false
    }
  ],

  "kmods": {
    "mii.ko": "",
    "via-rhine.ko":""
  },

    "scripts": {
    "on_boot": "check-via-rhine.sh"
  }

}
