{
  "mod_version": "v1",

  "files": [
    {
      "name": "rtl8150-4.4.180plus-v1000.tgz",
      "url": "https://gitlab.com/tinypill/rp-ext/-/raw/main/rtl8150/releases/rtl8150-4.4.180plus-v1000.tgz",
      "sha256": "335e1e6b4f9fad5947d93718e5219319190a25ba03d50bb131c68666dabaa43c",
      "packed": true
    },
    {
      "name": "check-rtl8150.sh",
      "url": "https://gitlab.com/tinypill/rp-ext/-/raw/main/rtl8150/src/check-rtl8150.sh",
      "sha256": "12e2c4767ae35ed2e7b5c752d47f6e7dcd441380f976be5d361a2c47d20483df",
      "packed": false
    }
  ],

  "kmods": {
    "usbcore.ko": "",
    "rtl8150.ko":""
  },

    "scripts": {
    "on_boot": "check-rtl8150.sh"
  }

}
