{
  "mod_version": "v1",

  "files": [
    {
      "name": "rtl8150-3.10.108.tgz",
      "url": "https://gitlab.com/tinypill/rp-ext/-/raw/main/rtl8150/releases/rtl8150-3.10.108.tgz",
      "sha256": "67a79e7c2037048c10d42a57460703cdb162597496ca1734d53716ff20a1d2b5",
      "packed": true
    },
    {
      "name": "check-rtl8150.sh",
      "url": "https://gitlab.com/tinypill/rp-ext/-/raw/main/rtl8150/src/check-rtl8150.sh",
      "sha256": "12e2c4767ae35ed2e7b5c752d47f6e7dcd441380f976be5d361a2c47d20483df",
      "packed": false
    }
  ],

  "kmods": {
    "usbcore.ko": "",
    "rtl8150.ko":""
  },

    "scripts": {
    "on_boot": "check-rtl8150.sh"
  }

}
