{
  "mod_version": "v1",

  "files": [
    {
      "name": "rtl8150-4.4.180plus.tgz",
      "url": "https://gitlab.com/tinypill/rp-ext/-/raw/main/rtl8150/releases/rtl8150-4.4.180plus.tgz",
      "sha256": "b36dca0f888894ca5919d3a1c838d94e2937bfac0b10184aa6eb196bd34b09d4",
      "packed": true
    },
    {
      "name": "check-rtl8150.sh",
      "url": "https://gitlab.com/tinypill/rp-ext/-/raw/main/rtl8150/src/check-rtl8150.sh",
      "sha256": "12e2c4767ae35ed2e7b5c752d47f6e7dcd441380f976be5d361a2c47d20483df",
      "packed": false
    }
  ],

  "kmods": {
    "usbcore.ko": "",
    "rtl8150.ko":""
  },

    "scripts": {
    "on_boot": "check-rtl8150.sh"
  }

}
