{
  "mod_version": "v1",

  "files": [
    {
      "name": "rtl8150-4.4.180plus-geminilake.tgz",
      "url": "https://gitlab.com/tinypill/rp-ext/-/raw/main/rtl8150/releases/rtl8150-4.4.180plus-geminilake.tgz",
      "sha256": "579ba7600199522192d74b0a71114a9b7b6f942eeed2e09b3b0db75390b88cd6",
      "packed": true
    },
    {
      "name": "check-rtl8150.sh",
      "url": "https://gitlab.com/tinypill/rp-ext/-/raw/main/rtl8150/src/check-rtl8150.sh",
      "sha256": "12e2c4767ae35ed2e7b5c752d47f6e7dcd441380f976be5d361a2c47d20483df",
      "packed": false
    }
  ],

  "kmods": {
    "usbcore.ko": "",
    "rtl8150.ko":""
  },

    "scripts": {
    "on_boot": "check-rtl8150.sh"
  }

}
