{
  "mod_version": "v1",

  "files": [
    {
      "name": "via-velocity-3.10.108.tgz",
      "url": "https://gitlab.com/tinypill/rp-ext/-/raw/main/via-velocity/releases/via-velocity-3.10.108.tgz",
      "sha256": "d3cb315e7724a8963ee07c296fa33aa78661e4236120d705e6c6559901f1e030",
      "packed": true
    },
    {
      "name": "check-via-velocity.sh",
      "url": "https://gitlab.com/tinypill/rp-ext/-/raw/main/via-velocity/src/check-via-velocity.sh",
      "sha256": "43b3d64995e470968fe17d41a9de2451467b2240f967a00e9a92cd480e49e873",
      "packed": false
    }
  ],

  "kmods": {
    "crc-ccitt.ko": "",
    "via-velocity.ko":""
  },

    "scripts": {
    "on_boot": "check-via-velocity.sh"
  }

}
