{
  "mod_version": "v1",

  "files": [
    {
      "name": "via-velocity-4.4.180plus-denverton.tgz",
      "url": "https://gitlab.com/tinypill/rp-ext/-/raw/main/via-velocity/releases/via-velocity-4.4.180plus-denverton.tgz",
      "sha256": "c56b132f99df7ffa5b13561653593c6e58a3b79708caf76113fb35cbe616713e",
      "packed": true
    },
    {
      "name": "check-via-velocity.sh",
      "url": "https://gitlab.com/tinypill/rp-ext/-/raw/main/via-velocity/src/check-via-velocity.sh",
      "sha256": "43b3d64995e470968fe17d41a9de2451467b2240f967a00e9a92cd480e49e873",
      "packed": false
    }
  ],

  "kmods": {
    "crc-ccitt.ko": "",
    "via-velocity.ko":""
  },

    "scripts": {
    "on_boot": "check-via-velocity.sh"
  }

}
