{
  "mod_version": "v1",

  "files": [
    {
      "name": "rtc-cmos-3.10.108.tgz",
      "url": "https://gitlab.com/tinypill/rp-ext/-/raw/main/rtc-cmos/releases/rtc-cmos-3.10.108.tgz",
      "sha256": "6a4830b2cf15a8e9d2648ee69be287be5ebabd3963875ec4465dca2ad7cc17b0",
      "packed": true
    },
      {
      "name": "rtcwake.tar.gz",
      "url": "https://gitlab.com/tinypill/rp-ext/-/raw/main/rtc-cmos/releases/rtcwake.tar.gz",
      "sha256": "a77f600ec78d51e01fbae1a52fb811180c234d205b3801d391aa0815b72b129c",
      "packed": false
    },
     {
      "name": "install-rtcwake.sh",
      "url": "https://gitlab.com/tinypill/rp-ext/-/raw/main/rtc-cmos/src/install-rtcwake.sh",
      "sha256": "46ed4d176026f12f54a7ce6342bb0b3527ab0b191612881bbdc338734e320d17",
      "packed": false
    },
    {
      "name": "check-rtc-cmos.sh",
      "url": "https://gitlab.com/tinypill/rp-ext/-/raw/main/rtc-cmos/src/check-rtc-cmos.sh",
      "sha256": "8b08a517490e0dd27ade1a8ba4930d19a94b525b44f150e7a8faf86e1015585f",
      "packed": false
    }
  ],

  "kmods": {
    "rtc-cmos.ko":""
  },

    "scripts": {
    "on_boot": "check-rtc-cmos.sh",
    "on_os_load": "install-rtcwake.sh"

  }

}

