{
  "mod_version": "v1",

  "files": [
    {
      "name": "igbvf-4.4.180plus-broadwellnk.tgz",
      "url": "https://gitlab.com/tinypill/rp-ext/-/raw/main/igbvf/releases/igbvf-4.4.180plus-broadwellnk.tgz",
      "sha256": "9f79de9844798ea1e6df37b7426401f2977f6c6da41b53791ef5be39ae0e9a82",
      "packed": true
    },
    {
      "name": "check-igbvf.sh",
      "url": "https://gitlab.com/tinypill/rp-ext/-/raw/main/igbvf/src/check-igbvf.sh",
      "sha256": "92138a12d53438609816dbdd32e88ee806f541a133a4a25b5b1bbad61f1f3586",
      "packed": false
    }
  ],

  "kmods": {
    "igbvf.ko": ""
  },

    "scripts": {
    "on_boot": "check-igbvf.sh"
  }

}
