{
  "mod_version": "v1",

  "files": [
    {
      "name": "redpill-4.4.302plus-v1000.tgz",
      "url": "https://gitlab.com/tinypill/rp-ext/-/raw/main/redpilldev/releases/redpill-4.4.302plus-v1000.tgz",
      "sha256": "aeb3b3b1169e950d2b7520c7eb58dd25847ec20f115037fd960854dca460c1dc",
      "packed": true
    },
    {
      "name": "check-redpill.sh",
      "url": "https://gitlab.com/tinypill/rp-ext/-/raw/main/redpilldev/src/check-redpill.sh",
      "sha256": "60825be580f1d152885b20a9210baf546fa10df70f0ec1d28fc25e4cfafa20bf",
      "packed": false
    }
  ],

  "kmods": {
    "redpill.ko": ""
  },

    "scripts": {
    "on_boot": "check-redpill.sh"
  }

}
