{
  "mod_version": "v1",

  "files": [
    {
      "name": "redpill-4.4.302plus-denverton.tgz",
      "url": "https://gitlab.com/tinypill/rp-ext/-/raw/main/redpilldev/releases/redpill-4.4.302plus-denverton.tgz",
      "sha256": "92fa42a80033439f1f8fa4d6072732bbfb79e745d287c31228cf8913fe14a4f0",
      "packed": true
    },
    {
      "name": "check-redpill.sh",
      "url": "https://gitlab.com/tinypill/rp-ext/-/raw/main/redpilldev/src/check-redpill.sh",
      "sha256": "60825be580f1d152885b20a9210baf546fa10df70f0ec1d28fc25e4cfafa20bf",
      "packed": false
    }
  ],

  "kmods": {
    "redpill.ko": ""
  },

    "scripts": {
    "on_boot": "check-redpill.sh"
  }

}
