{
  "mod_version": "v1",

  "files": [
    {
      "name": "mpt3sas-3.10.108.tgz",
      "url": "https://gitlab.com/tinypill/rp-ext/-/raw/main/mpt3sas/releases/mpt3sas-3.10.108.tgz",
      "sha256": "1b1f6db6fe1522e244c24be5c14e7b1de8c409ad99421f1c316db029188a483a",
      "packed": true
    },
    {
      "name": "check-mpt3sas.sh",
      "url": "https://gitlab.com/tinypill/rp-ext/-/raw/main/mpt3sas/src/check-mpt3sas.sh",
      "sha256": "646be700c55c976bd1d925893601447d5faae0292e2683e3e3e946154f40c1ea",
      "packed": false
    }
  ],

  "kmods": {
    "mpt3sas.ko":""
  },

    "scripts": {
    "on_boot": "check-mpt3sas.sh"
  }

}
