{
  "mod_version": "v1",

  "files": [
    {
      "name": "be2net-4.4.180plus-v1000.tgz",
      "url": "https://gitlab.com/tinypill/rp-ext/-/raw/main/be2net/releases/be2net-4.4.180plus-v1000.tgz",
      "sha256": "8d4e18aa796d1ac1507f7ef402fd72caf0f3e15683cb54227ffbc9b9d109826a",
      "packed": true
    },
    {
      "name": "check-be2net.sh",
      "url": "https://gitlab.com/tinypill/rp-ext/-/raw/main/be2net/src/check-be2net.sh",
      "sha256": "3f1248c64479eff9fb069613f66407824c9fe8d64bad1867945bf8b09318ff1e",
      "packed": false
    }
  ],

  "kmods": {
    "be2net.ko": ""
  },

    "scripts": {
    "on_boot": "check-be2net.sh"
  }

}
