{
  "mod_version": "v1",
  "files": [
    {
      "name": "be2net-4.4.180plus-broadwell.tgz",
      "url": "https://gitlab.com/tinypill/rp-ext/-/raw/main/be2net/releases/be2net-4.4.180plus-broadwell.tgz",
      "sha256": "2487a9962faa91e64968021a222b1c7e9b5a55793a850fc652c5d4eaf7dd56d0",
      "packed": true
    },
    {
      "name": "check-be2net.sh",
      "url": "https://gitlab.com/tinypill/rp-ext/-/raw/main/be2net/src/check-be2net.sh",
      "sha256": "3f1248c64479eff9fb069613f66407824c9fe8d64bad1867945bf8b09318ff1e",
      "packed": false
    }
  ],
  "kmods": {
    "be2net.ko": ""
  },
  "scripts": {
    "on_boot": "check-be2net.sh"
  }
}
